<?xml version="1.0" standalone="no"?>
<!DOCTYPE svg PUBLIC "-//W3C//DTD SVG 1.1//EN" "http://www.w3.org/Graphics/SVG/1.1/DTD/svg11.dtd" >
<!--
2019-3-12: Created with FontForge (http://fontforge.org)
-->
<svg xmlns="http://www.w3.org/2000/svg" xmlns:xlink="http://www.w3.org/1999/xlink" version="1.1">
<metadata>
Created by FontForge 20170731 at Tue Mar 12 16:53:44 2019
 By root

</metadata>
<defs>
<font id="Flaticon" horiz-adv-x="512" >
  <font-face 
    font-family="Flaticon"
    font-weight="400"
    font-stretch="normal"
    units-per-em="512"
    panose-1="2 0 5 3 0 0 0 0 0 0"
    ascent="448"
    descent="-64"
    bbox="-0.00728551 -64 512.001 448"
    underline-thickness="25.6"
    underline-position="-51.2"
    unicode-range="U+0020-F10A"
  />
    <missing-glyph />
    <glyph glyph-name="space" unicode=" " horiz-adv-x="200" 
 />
    <glyph glyph-name="006-checked" unicode="&#xf105;" 
d="M5.90723 172.308c-3.93848 3.93848 -5.90723 9.84668 -5.90723 13.7852s1.96875 9.8457 5.90723 13.7842l27.5693 27.5693c7.87695 7.87695 19.6924 7.87695 27.5693 0l1.96973 -1.96973l108.308 -116.185c3.93848 -3.93848 9.8457 -3.93848 13.7842 0l263.877 273.724
h1.96973v0c7.87695 7.87695 19.6924 7.87695 27.5693 0l27.5693 -27.5693c7.87598 -7.87695 7.87598 -19.6924 0 -27.5693v0l-315.077 -326.893c-3.93848 -3.93848 -7.87695 -5.90723 -13.7852 -5.90723c-5.90723 0 -9.8457 1.96875 -13.7842 5.90723l-153.601 165.416z" />
    <glyph glyph-name="010-star" unicode="&#xf109;" 
d="M268.103 428.078l65.127 -154.144l166.733 -14.3242c11.5645 -0.999023 16.2686 -15.4277 7.49023 -23.0225l-126.469 -109.57l37.8984 -163.001c2.62793 -11.3271 -9.64551 -20.2373 -19.5801 -14.2188l-143.29 86.415l-143.289 -86.415
c-9.96094 -5.99219 -22.208 2.91797 -19.5801 14.2188l37.8984 163.001l-126.495 109.596c-8.77832 7.5957 -4.09961 22.0244 7.49023 23.0234l166.733 14.3242l65.127 154.117c4.52051 10.7236 19.6846 10.7236 24.2051 0z" />
    <glyph glyph-name="011-play-button" unicode="&#xf10a;" 
d="M256 448c141.653 0 256 -114.347 256 -256s-114.347 -256 -256 -256s-256 114.347 -256 256s114.347 256 256 256zM344.747 178.347c4.2666 3.41309 7.67969 7.67969 7.67969 13.6533s-3.41309 11.0938 -7.67969 13.6533l-128 80.2129
c-5.12012 2.56055 -11.0938 2.56055 -16.2139 0c-5.12012 -2.55957 -8.5332 -7.67969 -8.5332 -13.6533v-161.279c0 -5.12012 3.41309 -11.0938 8.5332 -13.6533c2.56055 -0.853516 5.12012 -1.70703 7.67969 -1.70703c3.41406 0 5.97363 0.853516 8.53418 2.56055z" />
    <glyph glyph-name="005-phone-receiver" unicode="&#xf104;" 
d="M511.756 44.0303c1.08496 -8.3125 -1.44824 -15.5391 -7.58887 -21.6807l-72.0879 -71.5439c-3.25195 -3.61328 -7.49707 -6.6875 -12.7363 -9.21484c-5.24023 -2.53027 -10.3887 -4.15625 -15.4453 -4.87793c-0.361328 0 -1.44824 -0.0927734 -3.25586 -0.273438
c-1.80371 -0.179688 -4.15234 -0.272461 -7.04297 -0.272461c-6.86816 0 -17.9805 1.1748 -33.3369 3.52441c-15.3574 2.34961 -34.1465 8.13184 -56.3672 17.3447c-22.2266 9.21387 -47.4297 23.0371 -75.6133 41.4639c-28.1846 18.4268 -58.1768 43.7227 -89.9756 75.8828
c-25.2939 24.9326 -46.252 48.7822 -62.874 71.5459c-16.6221 22.7656 -29.9912 43.8135 -40.1094 63.1455s-17.707 36.8574 -22.7656 52.5762s-8.49121 29.2686 -10.2979 40.6514c-1.80664 11.3818 -2.53027 20.3252 -2.16797 26.8301
c0.361328 6.50391 0.541992 10.1172 0.541992 10.8398c0.722656 5.05859 2.34863 10.208 4.87793 15.4473c2.5293 5.24023 5.60059 9.48535 9.21387 12.7383l72.0889 72.0879c5.05859 5.05859 10.8398 7.58887 17.3447 7.58887c4.69727 0 8.85254 -1.35547 12.4658 -4.06543
s6.68555 -6.05273 9.21484 -10.0273l57.9961 -110.03c3.25195 -5.78125 4.15527 -12.1045 2.70996 -18.9707c-1.44531 -6.86523 -4.51758 -12.6465 -9.21484 -17.3438l-26.5586 -26.5596c-0.722656 -0.722656 -1.35547 -1.89648 -1.89746 -3.52246
s-0.8125 -2.98145 -0.8125 -4.06543c1.44531 -7.58789 4.69727 -16.2607 9.75586 -26.0166c4.33594 -8.67285 11.0215 -19.2422 20.0547 -31.708c9.03418 -12.4668 21.8613 -26.8291 38.4834 -43.0898c16.2607 -16.624 30.7148 -29.54 43.3613 -38.7559
c12.6445 -9.21094 23.2178 -15.9893 31.709 -20.3252c8.49219 -4.33594 14.9961 -6.95605 19.5117 -7.85645l6.77344 -1.35645c0.722656 0 1.90039 0.272461 3.52441 0.813477c1.62598 0.542969 2.80078 1.1748 3.52344 1.89746l30.8945 31.4375
c6.50781 5.78027 14.0928 8.67188 22.7656 8.67188c6.14453 0 11.0205 -1.08398 14.6338 -3.25293h0.541016l104.608 -61.79c7.59082 -4.70117 12.1074 -10.6611 13.5537 -17.8877z" />
    <glyph glyph-name="009-checkmark-icon" unicode="&#xf108;" 
d="M256 -64c-141.385 0 -256 114.615 -256 256s114.615 256 256 256s256 -114.615 256 -256s-114.615 -256 -256 -256zM130.865 178.388l1.90918 -2.86523l74.4844 -80.2129c1.90918 -1.91016 3.81934 -2.86523 6.68359 -2.86523
c2.86523 0 4.77539 0.955078 6.68457 2.86523l152.788 158.517c3.81934 3.81934 3.81934 9.54883 0 13.3691l-13.3691 13.3682c-3.82031 3.82031 -9.5498 3.82031 -13.3691 0h-0.955078l-127.959 -132.733c-1.91016 -1.91016 -4.77441 -1.91016 -6.68457 0l-52.5205 56.3398
l-0.955078 0.955078c-3.81934 3.81934 -9.54883 3.81934 -13.3691 0l-13.3682 -13.3691c-1.91016 -1.90918 -2.86523 -4.77441 -2.86523 -6.68457c0 -1.90918 0.955078 -4.77441 2.86523 -6.68359z" />
    <glyph glyph-name="008-menu" unicode="&#xf107;" 
d="M512 384v-42.667c0 -12.7998 -8.5332 -21.333 -21.333 -21.333h-469.334c-12.7998 0 -21.333 8.5332 -21.333 21.333v42.667c0 12.7998 8.5332 21.333 21.333 21.333h469.334c12.7998 0 21.333 -8.5332 21.333 -21.333zM512 213.333v-42.666
c0 -12.8008 -8.5332 -21.334 -21.333 -21.334h-469.334c-12.7998 0 -21.333 8.5332 -21.333 21.334v42.666c0 12.8008 8.5332 21.334 21.333 21.334h469.334c12.7998 0 21.333 -8.5332 21.333 -21.334zM512 42.667v-42.667c0 -12.7998 -8.5332 -21.333 -21.333 -21.333
h-469.334c-12.7998 0 -21.333 8.5332 -21.333 21.333v42.667c0 12.7998 8.5332 21.333 21.333 21.333h469.334c12.7998 0 21.333 -8.5332 21.333 -21.333z" />
    <glyph glyph-name="002-maps-and-flags" unicode="&#xf101;" 
d="M256 448c102.244 0 185.425 -83.1816 185.427 -185.426c0 -126.889 -165.938 -313.167 -173.004 -321.035c-6.62402 -7.37793 -18.21 -7.39062 -24.8457 0c-7.06543 7.86816 -173.004 194.146 -173.004 321.035c0 102.244 83.1816 185.426 185.427 185.426zM256 169.281
c51.4414 0 93.291 41.8496 93.291 93.292c0 51.4414 -41.8496 93.293 -93.291 93.293s-93.292 -41.8506 -93.292 -93.292c0 -51.4424 41.8496 -93.293 93.292 -93.293z" />
    <glyph glyph-name="001-quote" unicode="&#xf100;" 
d="M205.69 328.088c-30.1514 -12.8076 -52.4551 -29.3291 -67.3242 -49.5596c-18.1738 -25.1992 -28.0859 -58.6504 -28.9121 -100.371h77.6504c13.6299 0 24.7812 -11.1475 24.7812 -24.7822v-162.322c0 -13.6299 -11.1514 -24.7812 -24.7812 -24.7812h-162.322
c-13.6299 0 -24.7822 11.1514 -24.7822 24.7812v126.802c0 61.542 5.78223 109.862 16.5215 145.388c10.7383 35.1074 30.5645 66.9111 59.8896 94.5801c23.9561 23.543 54.1074 42.9561 89.2148 57.8252c12.3916 5.37305 26.4346 0 32.2168 -11.9746l20.2383 -42.542
c5.7832 -12.3906 0.413086 -27.6729 -12.3906 -33.043zM497.292 328.088c-30.1514 -12.8076 -52.4551 -29.3291 -67.3242 -49.5635c-18.1699 -25.1992 -28.0869 -58.6504 -28.9131 -100.371h78.0635c13.6299 0 24.7822 -11.1484 24.7822 -24.7822v-162.322
c0 -13.6299 -11.1523 -24.7822 -24.7822 -24.7822h-162.321c-13.6309 0 -24.7822 11.1523 -24.7822 24.7822v126.802c0 61.9551 5.36523 110.283 16.1035 144.975c10.7432 35.1074 30.9775 66.9111 60.3076 94.9971c24.3643 23.1299 54.1074 42.543 88.8018 57.4121
c12.3916 5.36914 26.4346 0 32.2168 -11.9785l20.2383 -42.125c5.77832 -12.3906 0.413086 -27.6729 -12.3906 -33.043z" />
    <glyph glyph-name="007-add" unicode="&#xf106;" 
d="M466.286 237.714c25.2451 0 45.7139 -20.4688 45.7139 -45.7139s-20.4688 -45.7139 -45.7139 -45.7139h-155.429c-5.0498 0 -9.14355 -4.09375 -9.14355 -9.14355v-155.429c0 -25.2451 -20.4688 -45.7139 -45.7139 -45.7139s-45.7139 20.4688 -45.7139 45.7139v155.429
c0 5.0498 -4.09375 9.14355 -9.14355 9.14355h-155.429c-25.2451 0 -45.7139 20.4688 -45.7139 45.7139s20.4688 45.7139 45.7139 45.7139h155.429c5.0498 0 9.14355 4.09375 9.14355 9.14355v155.429c0 25.2451 20.4688 45.7139 45.7139 45.7139
s45.7139 -20.4688 45.7139 -45.7139v-155.429c0 -5.0498 4.09375 -9.14355 9.14355 -9.14355h155.429zM466.286 237.714z" />
    <glyph glyph-name="004-instagram" unicode="&#xf103;" 
d="M352 448c88.3516 0 160 -71.6484 160 -160v-192c0 -88.3516 -71.6484 -160 -160 -160h-192c-88.3516 0 -160 71.6484 -160 160v192c0 88.3516 71.6484 160 160 160h192zM464 96v192c0 61.7598 -50.2402 112 -112 112h-192c-61.7598 0 -112 -50.2402 -112 -112v-192
c0 -61.7598 50.2402 -112 112 -112h192c61.7598 0 112 50.2402 112 112zM256 320c70.6885 0 128 -57.3115 128 -128s-57.3115 -128 -128 -128s-128 57.3115 -128 128s57.3115 128 128 128zM256 112c44.0957 0 80 35.9043 80 80c0 44.1279 -35.9043 80 -80 80
s-80 -35.8721 -80 -80c0 -44.0957 35.9043 -80 80 -80zM376.544 329.6c0 9.41992 7.63672 17.0566 17.0557 17.0566c9.41992 0 17.0566 -7.63672 17.0566 -17.0566c0 -9.41895 -7.63672 -17.0557 -17.0566 -17.0557c-9.41895 0 -17.0557 7.63672 -17.0557 17.0557z" />
    <glyph glyph-name="003-youtube" unicode="&#xf102;" 
d="M492.044 341.231c18.5674 -22.0674 19.9561 -55.8672 19.9561 -104.912v-88.6406c0 -56.2012 -8.86426 -88.6631 -29.6396 -108.545c-20.2588 -19.3887 -51.5732 -27.2969 -108.085 -27.2969h-236.554c-116.423 0 -137.722 45.7451 -137.722 135.842v88.6406
c0 46.5059 0 80.1084 17.9512 102.914c18.4121 23.3896 53.1123 32.9297 119.771 32.9297h236.552c65.166 0 99.2891 -8.96191 117.771 -30.9316zM328.706 179.762c5.45605 2.85059 8.87402 8.50098 8.86719 14.6611c-0.00878906 6.15527 -3.44043 11.7979 -8.90527 14.6348
l-107.418 55.7783c-5.11816 2.65918 -11.2539 2.4541 -16.1875 -0.541992c-4.93164 -2.99512 -7.94043 -8.34668 -7.94043 -14.1143v-111.92c0 -5.77734 3.0166 -11.1338 7.95898 -14.1279c2.62402 -1.58887 5.58691 -2.3877 8.55664 -2.3877
c2.62305 0 5.24902 0.62207 7.65039 1.87695z" />
  </font>
</defs></svg>
